{signal: [
  {name: 'clk', wave: 'p........'},
  {name: 'dma_addr', wave: 'x.3452x..', data: ['A0', 'A1', 'A2', 'A3']},
  {name: 'dma_data_in', wave: 'x.3452x..', data: ['D0', 'D1', 'D2', 'D3']},
  {name: 'dma_data_out', wave: 'x........', data: ['D0', 'D1', 'D2', 'D3']},
  {name: 'dma_req', wave: '0.1...0..', node: '..a.b'},
  {},
  {name: 'dma_rnw', wave: 'x.0...x..'}
	],
  edge: [
	'a<->b latency'
	]
}
