{signal: [
  {name: 'clk', wave: 'p........'},
  {name: 'par_addr', wave: 'x34x5x2x.', data: ['0', '4', '11', '14']},
  {name: 'par_data_in', wave: 'x34x5x2x.', data: ['R0', 'R4', 'R11', 'R14']},
  {name: 'par_data_out', wave: 'x........', data: ['D0', 'D1', 'D2', 'D3']},
  {name: 'par_we', wave: 'x1.x1x1xx'}
	]
}
